…
``` r
# Bruk ends_with() til å velge alle lengdevariablene
penguins %>%
  select(ends_with("mm"))
```

    ## # A tibble: 344 × 3
    ##    bill_length_mm bill_depth_mm flipper_length_mm
    ##             <dbl>         <dbl>             <int>
    ##  1           39.1          18.7               181
    ##  2           39.5          17.4               186
    ##  3           40.3          18                 195
    ##  4           NA            NA                  NA
    ##  5           36.7          19.3               193
    ##  6           39.3          20.6               190
    ##  7           38.9          17.8               181
    ##  8           39.2          19.6               195
    ##  9           34.1          18.1               193
    ## 10           42            20.2               190
    ## # ℹ 334 more rows
…
